%YAML 1.1
%TAG !u! tag:unity3d.com,2011:
--- !u!1045 &1
EditorBuildSettings:
  m_ObjectHideFlags: 0
  serializedVersion: 2
  m_Scenes:
  - enabled: 0
    path: 
    guid: 00000000000000000000000000000000
  - enabled: 1
    path: Assets/Scenes/Menu.unity
    guid: cf69da0761cfc2949a65157564695873
  - enabled: 1
    path: Assets/Scenes/Level_1.unity
    guid: c582db2faa93b1040810e74f3a33894a
  - enabled: 0
    path: Assets/Scenes/HDClemoot.unity
    guid: 05bc9a07c7dc21e49aa4b828fc7e5cae
  - enabled: 0
    path: Assets/Scenes/HDClemoot.unity
    guid: 05bc9a07c7dc21e49aa4b828fc7e5cae
  - enabled: 0
    path: Assets/Scenes/animationscene.unity
    guid: 12a55bbb151692c409c8fbf82565a7aa
  - enabled: 0
    path: Assets/Scenes/HDClemoot.unity
    guid: 05bc9a07c7dc21e49aa4b828fc7e5cae
  - enabled: 0
    path: Assets/Scenes/Level_1.unity
    guid: c582db2faa93b1040810e74f3a33894a
  - enabled: 1
    path: Assets/Scenes/Win.unity
    guid: a69301066f7cb484783bf10357d5fc3a
  - enabled: 1
    path: Assets/Scenes/YouDied.unity
    guid: 6a0e2d943b357f44d8a6f9cef91327f2
  m_configObjects: {}
